{
    "updateInfo":{
        "appName": "Virtual Printer",
        "appDescription": "The Virtual Printer",
        "packageName": "com.nuchwezi.virtualprinter",
        "versionCode": "4",
        "versionName": "1.3",
        "forceUpdate": false,
        "autoUpdate": true,
        "apkUrl": "https://bitbucket.org/nemesisfixx/virtualprinterbinaries/raw/master/VirtualPrinter.apk",
	"message": "Virtual Printer version 1.3 -- updates to deal with more special output variants"
    }
}

